The estimated time is 880.059551s
010	-1.019154e+06	5.812872e+05	2.778165e+04	2.778375e+04	-7.347587e+05	4.929062e+05	1.585991e+04	1.585601e+04	
011	-5.743063e+05	3.692318e+05	3.138875e+04	3.138696e+04	-5.982952e+05	4.180564e+05	1.782885e+04	1.783195e+04	
012	-4.424884e+05	3.537226e+05	3.527540e+04	3.527080e+04	-4.743637e+05	3.400634e+05	1.978688e+04	1.979593e+04	
013	-3.256827e+05	2.979541e+05	3.949525e+04	3.949439e+04	-3.456152e+05	2.743413e+05	2.185776e+04	2.185995e+04	
014	-2.880183e+05	1.461507e+05	4.057210e+04	4.056532e+04	-2.341464e+05	1.035122e+05	2.025481e+04	2.026686e+04	
015	-7.542868e+04	1.660596e+05	4.668032e+04	4.667578e+04	-1.435420e+05	2.026486e+05	2.539977e+04	2.540882e+04	
016	-4.364430e+04	1.728625e+05	5.033677e+04	5.033534e+04	-6.529889e+04	1.563394e+05	2.699345e+04	2.698520e+04	
017	2.620516e+04	1.003484e+05	5.348744e+04	5.350350e+04	-4.306854e+03	1.274437e+05	2.860128e+04	2.857879e+04	
018	5.419395e+04	6.943196e+04	5.590509e+04	5.581359e+04	2.576362e+04	9.743307e+04	2.983579e+04	2.989014e+04	
019	6.542483e+02	-5.738576e+03	5.653548e+04	5.640017e+04	1.776821e+04	6.000185e+04	3.004850e+04	3.034850e+04	
020	2.019575e+04	-4.465830e+04	5.732081e+04	5.745545e+04	1.468069e+04	2.437371e+04	3.082060e+04	3.058857e+04	
021	-7.431427e+03	-1.243811e+05	5.698162e+04	5.697265e+04	-2.026035e+04	-1.120131e+04	3.069343e+04	3.068985e+04	
022	-6.506677e+05	5.562540e+05	3.123026e+04	3.123197e+04	-5.161696e+05	4.184469e+05	1.756306e+04	1.755931e+04	
023	-3.386845e+05	4.395636e+05	4.051935e+04	4.051819e+04	-5.343917e+05	4.182455e+05	2.299577e+04	2.299736e+04	
024	-2.341303e+05	3.133457e+05	3.914082e+04	3.914336e+04	-2.817518e+05	3.133892e+05	2.152383e+04	2.151987e+04	
025	-1.360599e+05	2.532106e+05	4.307633e+04	4.307962e+04	-1.537605e+05	2.725707e+05	2.327391e+04	2.326692e+04	
026	-1.286400e+04	1.928634e+05	4.750028e+04	4.749344e+04	-7.755240e+04	2.238274e+05	2.535711e+04	2.536224e+04	
027	3.150888e+04	1.638086e+05	5.141642e+04	5.141835e+04	-2.203267e+04	1.843285e+05	2.719346e+04	2.718527e+04	
028	6.446453e+03	1.377088e+05	5.501434e+04	5.503798e+04	2.363896e+04	1.340442e+05	2.879109e+04	2.878663e+04	
029	4.720963e+03	2.131382e+04	5.640943e+04	5.634218e+04	4.714065e+04	7.948884e+04	2.944526e+04	2.956681e+04	
030	3.759651e+04	-7.799501e+02	5.792029e+04	5.792680e+04	3.167827e+04	5.452283e+04	3.029168e+04	3.028232e+04	
031	-1.779621e+04	-9.780902e+04	5.795338e+04	5.810581e+04	1.533102e+04	9.616456e+03	3.064485e+04	3.041086e+04	
032	-6.169548e+04	-1.620337e+05	5.786381e+04	5.782733e+04	-7.603072e+03	-4.072510e+04	3.038254e+04	3.040199e+04	
033	-8.970526e+04	-2.361141e+05	5.708288e+04	5.716117e+04	-6.198874e+04	-9.887382e+04	3.019967e+04	3.003433e+04	
034	-2.606717e+05	5.027486e+05	3.895268e+04	3.894880e+04	-2.240246e+05	3.836975e+05	2.092815e+04	2.093471e+04	
035	-9.396575e+04	3.041808e+05	4.408128e+04	4.409582e+04	-1.159958e+05	3.194795e+05	2.339662e+04	2.338017e+04	
036	-1.706389e+04	2.485609e+05	4.951531e+04	4.948090e+04	-4.824479e+04	2.555869e+05	2.549884e+04	2.549893e+04	
037	3.732329e+04	1.953709e+05	5.337451e+04	5.337433e+04	5.783355e+03	2.095070e+05	2.723944e+04	2.722939e+04	
038	1.096276e+05	1.435365e+05	5.719857e+04	5.725068e+04	3.491046e+04	1.590724e+05	2.904779e+04	2.896707e+04	
039	1.131885e+05	9.782597e+04	6.003999e+04	6.011434e+04	5.315168e+04	9.847990e+04	3.030747e+04	3.017193e+04	
040	2.088254e+04	-4.081031e+03	6.265673e+04	6.257049e+04	5.315791e+04	5.676432e+04	3.115230e+04	3.133705e+04	
041	4.311636e+03	-8.954175e+04	6.345677e+04	6.348145e+04	4.458816e+04	-5.144095e+03	3.155921e+04	3.153628e+04	
042	-2.537276e+04	-1.890803e+05	6.431161e+04	6.419055e+04	1.741017e+04	-6.340746e+04	3.179013e+04	3.198540e+04	
043	-8.369793e+04	-2.717819e+05	6.426505e+04	6.422253e+04	-1.322882e+04	-1.015782e+05	3.159802e+04	3.166047e+04	
044	-1.673219e+05	-3.483235e+05	6.231244e+04	6.233808e+04	-6.881651e+04	-1.391760e+05	3.080390e+04	3.071645e+04	
045	-2.621034e+05	-4.097312e+05	5.931508e+04	5.927845e+04	-1.504059e+05	-1.916944e+05	2.953137e+04	2.956616e+04	
046	-9.898438e+05	5.763343e+05	2.770827e+04	2.770847e+04	-7.305896e+05	4.792320e+05	1.550658e+04	1.550625e+04	
047	-6.060894e+05	3.960696e+05	3.114858e+04	3.114906e+04	-5.888524e+05	4.142206e+05	1.734974e+04	1.734864e+04	
048	-4.709795e+05	3.686052e+05	3.477560e+04	3.477654e+04	-4.571206e+05	3.413833e+05	1.905619e+04	1.905482e+04	
049	-3.416276e+05	3.096883e+05	3.823282e+04	3.823542e+04	-3.244497e+05	2.851731e+05	2.057249e+04	2.056744e+04	
050	-2.911563e+05	4.043736e+05	4.913805e+04	4.914704e+04	-3.886367e+05	1.764062e+05	2.569608e+04	2.568085e+04	
051	-1.149881e+05	1.782318e+05	4.545217e+04	4.545379e+04	-1.427778e+05	2.085598e+05	2.414917e+04	2.414752e+04	
052	-5.592233e+03	1.461369e+05	4.882785e+04	4.881433e+04	-7.396953e+04	1.730883e+05	2.577337e+04	2.579129e+04	
053	2.797022e+04	1.191005e+05	5.211063e+04	5.213786e+04	-4.220694e+03	1.359511e+05	2.730887e+04	2.726508e+04	
054	-5.895691e+03	9.344261e+04	5.351726e+04	5.353759e+04	9.746227e+03	1.071619e+05	2.798913e+04	2.801043e+04	
055	1.276338e+04	-1.590261e+04	5.478787e+04	5.483705e+04	2.041518e+04	6.711874e+04	2.866202e+04	2.872317e+04	
056	2.117228e+04	-5.659549e+04	5.571388e+04	5.576504e+04	1.552695e+04	3.647687e+04	2.925857e+04	2.915805e+04	
057	-1.491375e+04	-1.181641e+05	5.529582e+04	5.541169e+04	1.186902e+03	-1.940428e+03	2.928584e+04	2.901499e+04	
058	-6.491747e+05	5.460514e+05	3.089167e+04	3.089218e+04	-5.012239e+05	4.166992e+05	1.699932e+04	1.699888e+04	
059	-4.171629e+05	3.245636e+05	3.169912e+04	3.169731e+04	-2.636083e+05	2.677660e+05	1.683921e+04	1.684355e+04	
060	-2.389451e+05	3.288278e+05	3.865104e+04	3.864365e+04	-2.680635e+05	3.257467e+05	2.074864e+04	2.076209e+04	
061	-1.313130e+05	2.564381e+05	4.243937e+04	4.243995e+04	-1.584556e+05	2.689297e+05	2.248825e+04	2.248714e+04	
062	-1.022089e+04	1.948896e+05	4.619232e+04	4.619266e+04	-7.197568e+04	2.210279e+05	2.423569e+04	2.423516e+04	
063	3.069944e+04	1.867570e+05	4.939698e+04	4.940482e+04	-1.646412e+04	1.856519e+05	2.570969e+04	2.570591e+04	
064	3.298476e+03	1.833484e+05	5.253478e+04	5.251444e+04	1.803777e+04	1.404817e+05	2.716294e+04	2.717021e+04	
065	-2.201731e+03	1.502550e+04	5.413741e+04	5.415009e+04	4.232851e+04	9.351427e+04	2.794454e+04	2.792894e+04	
066	2.669703e+04	-1.821768e+04	5.580687e+04	5.575362e+04	4.127417e+04	5.878792e+04	2.867620e+04	2.881606e+04	
067	-1.341906e+04	-9.823338e+04	5.617412e+04	5.629515e+04	3.153783e+04	2.485473e+04	2.917117e+04	2.898624e+04	
068	-5.879748e+04	-1.621058e+05	5.601185e+04	5.607169e+04	-1.862367e+03	-1.631059e+04	2.905227e+04	2.888624e+04	
069	-9.379657e+04	-2.302963e+05	5.517248e+04	5.527503e+04	-5.831511e+04	-7.742050e+04	2.878260e+04	2.852058e+04	
070	-2.533659e+05	4.604993e+05	3.759582e+04	3.759568e+04	-2.208276e+05	3.820023e+05	2.009908e+04	2.009896e+04	
071	-1.025300e+05	3.032198e+05	4.224632e+04	4.224681e+04	-1.194106e+05	3.253562e+05	2.231682e+04	2.231287e+04	
072	-2.740041e+04	2.526663e+05	4.705089e+04	4.703732e+04	-4.548692e+04	2.709140e+05	2.421870e+04	2.422587e+04	
073	3.464078e+04	1.705332e+05	5.080261e+04	5.079620e+04	5.054363e+03	2.072199e+05	2.582199e+04	2.581414e+04	
074	8.650685e+04	1.638164e+05	5.316634e+04	5.313982e+04	4.110013e+04	1.680306e+05	2.690815e+04	2.693062e+04	
075	6.892419e+04	7.268202e+04	5.566732e+04	5.564710e+04	5.598517e+04	8.917102e+04	2.783720e+04	2.784327e+04	
076	2.349023e+04	-3.203742e+04	5.843027e+04	5.840935e+04	8.167766e+04	4.121001e+04	2.883674e+04	2.881516e+04	
077	1.688967e+04	-1.088180e+05	5.958638e+04	5.965191e+04	7.144649e+04	-8.645916e+03	2.937551e+04	2.923118e+04	
078	-1.466031e+04	-1.865153e+05	6.027218e+04	6.046644e+04	3.645974e+04	-5.322266e+04	2.974258e+04	2.948215e+04	
079	-7.683086e+04	-2.599478e+05	6.101557e+04	6.107792e+04	9.501986e+03	-9.055126e+04	2.989721e+04	2.983929e+04	
080	-1.669999e+05	-3.323151e+05	5.928780e+04	5.928002e+04	-5.885443e+04	-1.233163e+05	2.916936e+04	2.915381e+04	
081	-2.482210e+05	-4.170883e+05	5.679499e+04	5.673398e+04	-1.433349e+05	-1.806524e+05	2.818823e+04	2.823405e+04	
082	-9.886133e+05	5.520521e+05	2.771353e+04	2.771519e+04	-7.248165e+05	4.779314e+05	1.544361e+04	1.544005e+04	
083	-6.166364e+05	3.951843e+05	3.125054e+04	3.125113e+04	-5.831211e+05	4.155210e+05	1.735575e+04	1.735498e+04	
084	-4.750231e+05	3.642901e+05	3.524076e+04	3.524032e+04	-4.667046e+05	3.377186e+05	1.930267e+04	1.930302e+04	
085	-3.543938e+05	3.145114e+05	3.865489e+04	3.865160e+04	-3.303124e+05	2.749266e+05	2.070157e+04	2.070648e+04	
086	-3.687832e+05	2.671441e+05	4.565990e+04	4.565511e+04	-3.187652e+05	1.287837e+05	2.295476e+04	2.296258e+04	
087	-1.173569e+05	1.891412e+05	4.580099e+04	4.580994e+04	-1.441339e+05	2.065158e+05	2.419337e+04	2.418045e+04	
088	-2.353280e+04	1.419621e+05	4.915902e+04	4.917494e+04	-6.785904e+04	1.696137e+05	2.585062e+04	2.582700e+04	
089	-7.331494e+03	1.307618e+05	5.183647e+04	5.183161e+04	-1.784791e+04	1.364479e+05	2.703192e+04	2.703981e+04	
090	-1.283099e+04	1.042087e+05	5.339990e+04	5.339006e+04	1.029619e+04	1.147114e+05	2.783572e+04	2.785636e+04	
091	9.608652e+03	-7.347611e+03	5.494519e+04	5.487173e+04	1.954093e+04	6.382125e+04	2.852948e+04	2.874494e+04	
092	1.471188e+04	-5.023898e+04	5.568317e+04	5.575809e+04	1.284457e+04	3.389001e+04	2.921895e+04	2.906206e+04	
093	-1.194967e+04	-1.144719e+05	5.538185e+04	5.553032e+04	4.044542e+03	-4.629315e+03	2.932933e+04	2.903307e+04	
094	-6.440480e+05	5.094737e+05	3.115049e+04	3.114753e+04	-5.012754e+05	4.138407e+05	1.713552e+04	1.714081e+04	
095	-4.350712e+05	3.533562e+05	3.705575e+04	3.705030e+04	-4.126051e+05	2.324553e+05	1.932677e+04	1.933614e+04	
096	-2.480974e+05	3.255251e+05	3.848056e+04	3.848170e+04	-2.676167e+05	3.162352e+05	2.053813e+04	2.053739e+04	
097	-1.412374e+05	2.515058e+05	4.264634e+04	4.265050e+04	-1.562622e+05	2.689414e+05	2.252139e+04	2.251256e+04	
098	-1.296233e+04	1.998651e+05	4.639823e+04	4.639814e+04	-6.941377e+04	2.202047e+05	2.424543e+04	2.424277e+04	
099	2.774951e+04	1.905945e+05	4.950199e+04	4.950821e+04	-1.681585e+04	1.858009e+05	2.570347e+04	2.570872e+04	
100	2.464876e+04	1.957280e+05	5.172132e+04	5.174258e+04	1.668444e+04	1.392811e+05	2.680597e+04	2.679371e+04	
101	4.429678e+03	1.225186e+04	5.408828e+04	5.407733e+04	4.653533e+04	9.149924e+04	2.776332e+04	2.778040e+04	
102	2.576100e+04	-1.820614e+04	5.576395e+04	5.569264e+04	4.579093e+04	5.392407e+04	2.850550e+04	2.864131e+04	
103	-9.950165e+03	-9.426091e+04	5.627829e+04	5.620215e+04	3.224882e+04	2.116014e+04	2.885326e+04	2.891368e+04	
104	-5.690531e+04	-1.584793e+05	5.577257e+04	5.590475e+04	-2.310732e+02	-1.791760e+04	2.898693e+04	2.871663e+04	
105	-9.317317e+04	-2.224302e+05	5.517262e+04	5.527407e+04	-5.036401e+04	-7.589973e+04	2.868648e+04	2.849156e+04	
106	-2.557449e+05	4.246531e+05	3.764087e+04	3.763498e+04	-2.201774e+05	3.883150e+05	2.011065e+04	2.012049e+04	
107	-1.146647e+05	3.126576e+05	4.211908e+04	4.211674e+04	-1.329674e+05	3.128623e+05	2.231175e+04	2.231068e+04	
108	-3.736792e+04	2.439936e+05	4.716726e+04	4.715594e+04	-4.762140e+04	2.708669e+05	2.432050e+04	2.433595e+04	
109	2.765136e+04	1.702809e+05	5.061591e+04	5.060813e+04	5.343430e+03	2.096981e+05	2.574562e+04	2.574442e+04	
110	8.111677e+04	1.498767e+05	5.349651e+04	5.354857e+04	4.361849e+04	1.619539e+05	2.710781e+04	2.703277e+04	
111	8.569218e+04	5.452364e+04	5.569080e+04	5.568476e+04	5.246273e+04	9.206721e+04	2.795302e+04	2.795140e+04	
112	2.293282e+04	-3.184251e+04	5.863900e+04	5.865983e+04	7.574772e+04	3.749321e+04	2.903444e+04	2.897878e+04	
113	2.163283e+04	-1.152834e+05	5.969589e+04	5.975630e+04	5.867943e+04	-8.105423e+01	2.954689e+04	2.937215e+04	
114	-1.675519e+04	-1.796241e+05	6.050273e+04	6.062988e+04	3.834124e+04	-5.219227e+04	2.992152e+04	2.977054e+04	
115	-7.834684e+04	-2.551709e+05	6.072875e+04	6.083709e+04	-2.880238e+03	-8.802731e+04	2.994250e+04	2.978237e+04	
116	-1.725316e+05	-3.327383e+05	5.915007e+04	5.916894e+04	-6.706075e+04	-1.238503e+05	2.925874e+04	2.922458e+04	
117	-2.460056e+05	-4.105675e+05	5.678234e+04	5.670153e+04	-1.447211e+05	-1.914105e+05	2.829946e+04	2.837567e+04
920.149777s consumed in total.
	