The estimated time is 3695.299118s
001	-1.861419e+05	4.083146e+05	3.274125e+04	3.273869e+04	-1.120120e+05	3.443863e+05	1.779079e+04	1.779567e+04	
002	-1.483881e+05	2.819763e+05	3.730093e+04	3.730257e+04	-7.237310e+04	2.675290e+05	1.995683e+04	1.995401e+04	
003	8.149183e+02	1.671177e+05	4.145048e+04	4.146318e+04	-3.305007e+04	2.179160e+05	2.223644e+04	2.222568e+04	
004	8.405785e+04	8.282683e+04	4.544122e+04	4.544572e+04	-1.770851e+02	1.390511e+05	2.449944e+04	2.448928e+04	
005	1.514048e+05	-3.338450e+03	5.071613e+04	5.071142e+04	3.627492e+03	8.054066e+04	2.852430e+04	2.852363e+04	
006	1.636582e+05	-4.276015e+04	5.140167e+04	5.130348e+04	1.982070e+04	3.554299e+04	2.864439e+04	2.886175e+04	
007	7.140660e+04	-1.022977e+05	5.373456e+04	5.371804e+04	2.056435e+04	-3.623547e+04	2.980867e+04	2.985723e+04	
008	4.010919e+04	-1.941573e+05	5.462860e+04	5.456200e+04	1.995330e+03	-8.609695e+04	3.016417e+04	3.026361e+04	
009	-1.428836e+04	-2.784468e+05	5.512043e+04	5.526774e+04	-3.428295e+04	-1.520712e+05	3.057737e+04	3.026117e+04	
010	-8.554974e+04	-3.297017e+05	5.503555e+04	5.505141e+04	-9.493671e+04	-1.963313e+05	3.034749e+04	3.036958e+04	
011	-1.946051e+05	-4.090620e+05	5.392386e+04	5.402225e+04	-1.660437e+05	-2.527033e+05	2.973094e+04	2.960967e+04	
012	-2.953662e+05	-4.983306e+05	5.221520e+04	5.230059e+04	-2.483678e+05	-2.987932e+05	2.879443e+04	2.867234e+04	
013	-4.298660e+05	-5.679864e+05	5.002418e+04	5.006328e+04	-3.472161e+05	-3.583867e+05	2.753801e+04	2.748941e+04	
014	-3.546623e+04	6.183976e+05	9.928622e+04	9.928495e+04	-1.990746e+06	9.598803e+05	5.714352e+04	5.714524e+04	
015	-1.639073e+05	3.935908e+05	3.506206e+04	3.505887e+04	-1.431276e+05	3.576083e+05	1.958747e+04	1.959299e+04	
016	-1.317361e+05	2.733441e+05	3.960530e+04	3.960061e+04	-1.036401e+05	2.721265e+05	2.190999e+04	2.191962e+04	
017	2.574408e+04	1.713090e+05	4.379456e+04	4.378914e+04	-5.019494e+04	2.164063e+05	2.439760e+04	2.441916e+04	
018	9.735256e+04	9.980270e+04	4.700031e+04	4.699976e+04	-1.129434e+04	1.501307e+05	2.613562e+04	2.613148e+04	
019	1.036054e+05	1.254575e+04	4.897975e+04	4.900253e+04	1.530215e+04	9.834805e+04	2.727991e+04	2.723006e+04	
020	1.493349e+05	-5.223412e+04	5.098660e+04	5.093121e+04	1.769578e+04	3.764828e+04	2.827964e+04	2.842902e+04	
021	9.660661e+04	-2.987919e+04	5.290211e+04	5.286871e+04	1.156804e+04	-2.915542e+04	2.922759e+04	2.931385e+04	
022	2.066719e+04	-1.607221e+05	5.426771e+04	5.423790e+04	-2.780220e+03	-9.157096e+04	2.991442e+04	2.994882e+04	
023	-3.826565e+04	-2.577798e+05	5.454877e+04	5.474006e+04	-4.604187e+04	-1.659473e+05	3.024378e+04	2.987984e+04	
024	-1.002403e+05	-3.221669e+05	5.469378e+04	5.479020e+04	-9.541230e+04	-2.066822e+05	3.017508e+04	3.003994e+04	
025	-2.052988e+05	-3.909380e+05	5.365080e+04	5.369940e+04	-1.703352e+05	-2.491297e+05	2.945482e+04	2.944543e+04	
026	-3.013795e+05	-4.822350e+05	5.206483e+04	5.208674e+04	-2.560991e+05	-2.970154e+05	2.861311e+04	2.860552e+04	
027	-4.382622e+05	-5.553660e+05	4.974914e+04	4.981266e+04	-3.484122e+05	-3.547442e+05	2.737830e+04	2.729576e+04	
028	-1.089112e+05	6.123329e+05	1.001321e+05	1.001299e+05	-2.031007e+06	9.672783e+05	5.746529e+04	5.747030e+04	
029	-1.523713e+05	3.895582e+05	3.534686e+04	3.534554e+04	-1.338467e+05	3.630938e+05	1.969466e+04	1.969563e+04	
030	-1.288107e+05	2.647995e+05	4.001078e+04	4.001012e+04	-1.024466e+05	2.749765e+05	2.206725e+04	2.207024e+04	
031	2.213307e+04	1.661434e+05	4.413676e+04	4.414994e+04	-4.564976e+04	1.988555e+05	2.457885e+04	2.456983e+04	
032	8.487848e+04	9.708321e+04	4.659877e+04	4.662634e+04	-9.400250e+03	1.490860e+05	2.576988e+04	2.571951e+04	
033	9.815442e+04	1.885702e+04	4.910910e+04	4.912359e+04	6.133353e+03	9.771292e+04	2.726690e+04	2.723772e+04	
034	1.420927e+05	-4.791733e+04	5.101707e+04	5.090426e+04	1.457307e+04	3.603493e+04	2.825803e+04	2.844523e+04	
035	9.258606e+04	-3.220711e+04	5.310126e+04	5.310658e+04	1.613861e+04	-3.049010e+04	2.936052e+04	2.936638e+04	
036	9.251445e+03	-1.567776e+05	5.424117e+04	5.420984e+04	-9.790237e+03	-9.336017e+04	2.986162e+04	2.989513e+04	
037	-4.605072e+04	-2.580372e+05	5.479197e+04	5.472297e+04	-5.954885e+04	-1.553285e+05	2.998188e+04	3.010782e+04	
038	-9.928840e+04	-3.298402e+05	5.489431e+04	5.493552e+04	-9.570763e+04	-2.042372e+05	3.013010e+04	3.011415e+04	
039	-2.009547e+05	-3.924915e+05	5.377188e+04	5.380829e+04	-1.676357e+05	-2.474947e+05	2.942871e+04	2.938833e+04	
040	-3.021700e+05	-4.909449e+05	5.206675e+04	5.212069e+04	-2.571441e+05	-2.966310e+05	2.852256e+04	2.845683e+04	
041	-4.385570e+05	-5.598237e+05	4.993173e+04	4.995963e+04	-3.609962e+05	-3.613177e+05	2.732613e+04	2.728576e+04	
042	-7.978507e+04	5.865819e+05	9.955522e+04	9.955626e+04	-2.022045e+06	9.561777e+05	5.728330e+04	5.728026e+04	
043	-3.693801e+05	4.440104e+05	3.117355e+04	3.117300e+04	-3.141701e+05	3.970792e+05	1.741524e+04	1.741593e+04	
044	-2.686345e+05	3.697519e+05	3.581669e+04	3.581497e+04	-2.279831e+05	3.079340e+05	1.961890e+04	1.962167e+04	
045	-1.191518e+05	2.745490e+05	4.098041e+04	4.098154e+04	-1.425871e+05	2.460170e+05	2.234738e+04	2.234543e+04	
046	-4.690879e+04	2.012026e+05	4.517171e+04	4.518571e+04	-8.711642e+04	1.947565e+05	2.436815e+04	2.436502e+04	
047	2.068448e+04	1.204862e+05	4.869943e+04	4.868190e+04	-4.456993e+04	1.320791e+05	2.605780e+04	2.607239e+04	
048	7.990804e+04	5.137426e+04	5.133958e+04	5.132760e+04	2.551598e+02	9.203164e+04	2.737586e+04	2.740092e+04	
049	1.112571e+05	-3.921705e+04	5.268923e+04	5.279016e+04	9.036556e+03	4.767815e+04	2.807567e+04	2.796108e+04	
050	3.699127e+04	-2.340131e+04	5.587447e+04	5.585778e+04	2.788577e+04	-1.844695e+04	2.924695e+04	2.923107e+04	
051	1.971963e+04	-1.183426e+05	5.674005e+04	5.675244e+04	1.354765e+04	-5.644489e+04	2.961767e+04	2.959520e+04	
052	-2.217533e+04	-2.041927e+05	5.772958e+04	5.758002e+04	-1.267734e+04	-1.105640e+05	2.979368e+04	3.013330e+04	
053	-7.263486e+04	-2.738202e+05	5.778647e+04	5.789840e+04	-4.249873e+04	-1.411630e+05	2.997613e+04	2.985619e+04	
054	-1.776964e+05	-3.496977e+05	5.613521e+04	5.620403e+04	-1.099476e+05	-1.615089e+05	2.923620e+04	2.905980e+04	
055	-2.498145e+05	-4.123907e+05	5.440751e+04	5.433778e+04	-1.852907e+05	-2.210970e+05	2.829623e+04	2.827995e+04	
056	1.460830e+06	9.529128e+05	1.054304e+05	1.054283e+05	-1.523512e+06	9.865190e+05	6.385304e+04	6.385612e+04	
057	-3.740722e+05	4.422435e+05	3.088230e+04	3.088444e+04	-3.073503e+05	3.680042e+05	1.725731e+04	1.725357e+04	
058	-2.704784e+05	3.708392e+05	3.525793e+04	3.525928e+04	-2.265400e+05	2.925015e+05	1.918689e+04	1.918580e+04	
059	-1.325331e+05	2.770117e+05	3.985667e+04	3.985437e+04	-1.321387e+05	2.361912e+05	2.148248e+04	2.148767e+04	
060	-6.118070e+04	2.049176e+05	4.412010e+04	4.411542e+04	-6.976535e+04	1.910965e+05	2.342908e+04	2.342793e+04	
061	3.267205e+03	1.303988e+05	4.779856e+04	4.777060e+04	-2.185476e+04	1.428171e+05	2.518252e+04	2.522083e+04	
062	5.316419e+04	5.185805e+04	5.034946e+04	5.031910e+04	4.843953e+03	1.029696e+05	2.642860e+04	2.646520e+04	
063	1.107826e+05	-4.667636e+04	5.255964e+04	5.262965e+04	2.062449e+04	5.029667e+04	2.754672e+04	2.744686e+04	
064	4.168900e+04	-1.107597e+03	5.552437e+04	5.550958e+04	3.432214e+04	-1.855357e+04	2.866821e+04	2.865952e+04	
065	1.426687e+04	-1.339145e+05	5.662842e+04	5.666023e+04	1.872955e+04	-6.454059e+04	2.914367e+04	2.909508e+04	
066	-2.314815e+04	-2.072228e+05	5.725668e+04	5.738602e+04	-6.677000e+03	-1.072022e+05	2.944223e+04	2.929313e+04	
067	-8.140463e+04	-2.799759e+05	5.725040e+04	5.742021e+04	-3.381646e+04	-1.357434e+05	2.943099e+04	2.921131e+04	
068	-1.842991e+05	-3.536298e+05	5.553577e+04	5.560530e+04	-1.091218e+05	-1.592407e+05	2.863148e+04	2.845681e+04	
069	-2.589912e+05	-4.184350e+05	5.369996e+04	5.370415e+04	-1.893052e+05	-2.122532e+05	2.779414e+04	2.768991e+04	
070	1.476710e+06	9.227151e+05	1.032003e+05	1.031917e+05	-1.543143e+06	9.984638e+05	6.384851e+04	6.386746e+04	
071	-3.647232e+05	4.412373e+05	3.101685e+04	3.101745e+04	-3.242609e+05	3.784946e+05	1.721377e+04	1.721177e+04	
072	-2.728333e+05	3.812096e+05	3.519243e+04	3.519186e+04	-2.260684e+05	3.217582e+05	1.906673e+04	1.906696e+04	
073	-1.301656e+05	2.764584e+05	3.963716e+04	3.963523e+04	-1.222507e+05	2.640726e+05	2.125147e+04	2.125504e+04	
074	-6.711856e+04	1.978593e+05	4.378501e+04	4.379112e+04	-5.830453e+04	2.090052e+05	2.308490e+04	2.307212e+04	
075	4.511261e+03	1.220594e+05	4.746357e+04	4.745689e+04	-2.112911e+04	1.580382e+05	2.478884e+04	2.479932e+04	
076	5.668639e+04	5.585184e+04	5.011652e+04	5.008284e+04	8.182849e+03	1.106387e+05	2.609166e+04	2.613311e+04	
077	9.829260e+04	-5.346392e+04	5.255936e+04	5.262517e+04	2.050537e+04	4.467812e+04	2.724993e+04	2.715017e+04	
078	3.144706e+04	-4.698616e+03	5.543210e+04	5.541329e+04	3.968052e+04	-1.572012e+04	2.835357e+04	2.834754e+04	
079	7.137513e+03	-1.178018e+05	5.674071e+04	5.675336e+04	2.350686e+04	-4.981265e+04	2.887641e+04	2.884809e+04	
080	-2.725881e+04	-2.091285e+05	5.728857e+04	5.745610e+04	-1.243351e+03	-1.017375e+05	2.916643e+04	2.903937e+04	
081	-8.175623e+04	-2.753483e+05	5.742815e+04	5.752694e+04	-3.609893e+04	-1.352419e+05	2.913253e+04	2.902477e+04	
082	-1.912435e+05	-3.507164e+05	5.586686e+04	5.590356e+04	-1.106247e+05	-1.578212e+05	2.846062e+04	2.831519e+04	
083	-2.562543e+05	-4.118900e+05	5.383692e+04	5.381896e+04	-1.929676e+05	-2.202447e+05	2.764830e+04	2.755856e+04	
084	1.439451e+06	8.322911e+05	1.071720e+05	1.071842e+05	-1.519618e+06	1.008705e+06	6.783871e+04	6.781393e+04	
085	-3.748911e+05	4.343207e+05	3.060259e+04	3.060158e+04	-3.059598e+05	3.863382e+05	1.706171e+04	1.706452e+04	
086	-2.693525e+05	3.852586e+05	3.570505e+04	3.570691e+04	-2.258768e+05	2.982910e+05	1.942999e+04	1.942768e+04	
087	-1.167255e+05	2.645527e+05	4.075485e+04	4.075551e+04	-1.454258e+05	2.296953e+05	2.199846e+04	2.199861e+04	
088	-4.979996e+04	1.898678e+05	4.484087e+04	4.486157e+04	-8.712229e+04	1.835899e+05	2.394046e+04	2.392746e+04	
089	1.821382e+04	1.092667e+05	4.849180e+04	4.849178e+04	-4.783810e+04	1.230711e+05	2.564579e+04	2.565910e+04	
090	6.872401e+04	3.903686e+04	5.117627e+04	5.117404e+04	-5.893365e+03	7.782593e+04	2.688636e+04	2.689463e+04	
091	1.166573e+05	-5.008802e+04	5.312319e+04	5.317933e+04	1.596867e+04	2.821178e+04	2.762876e+04	2.754156e+04	
092	2.894985e+04	-2.455292e+04	5.593609e+04	5.591677e+04	2.914090e+04	-2.122546e+04	2.862002e+04	2.862327e+04	
093	1.256221e+04	-1.317425e+05	5.698719e+04	5.698667e+04	1.200533e+04	-6.719614e+04	2.903319e+04	2.900071e+04	
094	-2.911670e+04	-2.235802e+05	5.770389e+04	5.776848e+04	-1.259146e+04	-1.174384e+05	2.930023e+04	2.932109e+04	
095	-7.726654e+04	-2.893117e+05	5.797796e+04	5.803068e+04	-3.736086e+04	-1.440569e+05	2.938929e+04	2.931074e+04	
096	-1.831940e+05	-3.580579e+05	5.621076e+04	5.623815e+04	-1.182487e+05	-1.668832e+05	2.864910e+04	2.851429e+04	
097	-2.633451e+05	-4.201357e+05	5.380492e+04	5.378967e+04	-2.000531e+05	-2.217031e+05	2.767409e+04	2.758657e+04	
098	1.425352e+06	8.524645e+05	1.043938e+05	1.043911e+05	-1.529729e+06	1.015626e+06	6.631915e+04	6.632392e+04	
099	-3.718428e+05	4.366237e+05	3.100721e+04	3.100625e+04	-3.125545e+05	3.607406e+05	1.725243e+04	1.725411e+04	
100	-2.657937e+05	3.891886e+05	3.550987e+04	3.551394e+04	-2.325645e+05	2.892683e+05	1.921567e+04	1.920940e+04	
101	-1.217712e+05	2.607839e+05	3.980723e+04	3.980714e+04	-1.353245e+05	2.376904e+05	2.131783e+04	2.131689e+04	
102	-6.753355e+04	1.886665e+05	4.405395e+04	4.405596e+04	-7.114929e+04	1.924680e+05	2.322740e+04	2.323079e+04	
103	1.390878e+03	1.150790e+05	4.755839e+04	4.754270e+04	-3.228538e+04	1.366841e+05	2.490744e+04	2.491885e+04	
104	5.319155e+04	3.455997e+04	5.033444e+04	5.034358e+04	-8.050191e+02	8.927991e+04	2.624382e+04	2.625109e+04	
105	1.107269e+05	-5.474550e+04	5.273352e+04	5.278425e+04	2.221705e+04	3.015488e+04	2.736252e+04	2.728802e+04	
106_1	5.063556e+04	1.244033e+04	5.619238e+04	5.617214e+04	1.066665e+04	-1.659029e+04	2.894921e+04	2.892205e+04	
107	5.667786e+03	-1.345723e+05	5.661695e+04	5.657694e+04	1.322986e+04	-6.412054e+04	2.873829e+04	2.880230e+04	
108	-3.015288e+04	-2.164850e+05	5.752132e+04	5.756411e+04	-8.764965e+03	-1.138427e+05	2.916117e+04	2.910428e+04	
109	-8.088701e+04	-2.929414e+05	5.757262e+04	5.765475e+04	-4.088772e+04	-1.500725e+05	2.912090e+04	2.905721e+04	
110	-1.897426e+05	-3.600406e+05	5.570962e+04	5.576328e+04	-1.161943e+05	-1.647979e+05	2.841000e+04	2.825433e+04	
111	-2.586832e+05	-4.195672e+05	5.385792e+04	5.383742e+04	-1.995080e+05	-2.226815e+05	2.760398e+04	2.755228e+04	
112	1.399255e+06	8.370977e+05	1.056096e+05	1.056003e+05	-1.505100e+06	1.008435e+06	6.753891e+04	6.755982e+04	
113	-3.697209e+05	4.337039e+05	3.137992e+04	3.137966e+04	-3.242202e+05	3.692567e+05	1.754297e+04	1.754299e+04	
114	-2.654043e+05	3.592364e+05	3.629200e+04	3.629089e+04	-2.389143e+05	2.907981e+05	1.973880e+04	1.974102e+04	
115	-1.167267e+05	2.654520e+05	4.030490e+04	4.031008e+04	-1.437058e+05	2.379651e+05	2.163622e+04	2.162856e+04	
116	-6.157539e+04	1.894970e+05	4.453616e+04	4.453900e+04	-7.633320e+04	1.892536e+05	2.353998e+04	2.353532e+04	
117	8.238503e+03	1.105768e+05	4.806161e+04	4.804257e+04	-3.719889e+04	1.355688e+05	2.520767e+04	2.523231e+04	
118	6.150024e+04	4.265640e+04	5.077359e+04	5.073833e+04	-2.646077e+03	9.090907e+04	2.651124e+04	2.655301e+04	
119	1.038455e+05	-5.351425e+04	5.296239e+04	5.302144e+04	1.453514e+04	2.964823e+04	2.759107e+04	2.751215e+04	
120	2.286220e+04	-2.467038e+04	5.591839e+04	5.586978e+04	2.856685e+04	-1.864339e+04	2.865834e+04	2.868596e+04	
121	1.241973e+04	-1.365041e+05	5.715314e+04	5.711299e+04	9.992214e+03	-6.617804e+04	2.908445e+04	2.912202e+04	
122	-3.829172e+04	-2.134869e+05	5.791783e+04	5.770512e+04	-8.764954e+03	-1.135900e+05	2.925287e+04	2.959087e+04	
123	-8.193366e+04	-2.885038e+05	5.793708e+04	5.796154e+04	-4.414148e+04	-1.482946e+05	2.936719e+04	2.935127e+04	
124	-1.896671e+05	-3.575817e+05	5.609201e+04	5.614383e+04	-1.215703e+05	-1.675475e+05	2.868615e+04	2.855536e+04	
125	-2.623601e+05	-4.145307e+05	5.423448e+04	5.418230e+04	-2.009725e+05	-2.272822e+05	2.788096e+04	2.784184e+04	
126	1.368849e+06	8.455409e+05	1.051431e+05	1.051438e+05	-1.494625e+06	1.014085e+06	6.738943e+04	6.738663e+04	
127	-1.583774e+05	3.898702e+05	3.528695e+04	3.528740e+04	-1.322686e+05	3.548136e+05	1.953730e+04	1.953705e+04	
128	-1.217964e+05	2.711371e+05	3.966689e+04	3.966719e+04	-1.060594e+05	2.646960e+05	2.172186e+04	2.172138e+04	
129	9.359819e+03	1.787355e+05	4.260305e+04	4.260032e+04	-4.610113e+04	2.176847e+05	2.327420e+04	2.328067e+04	
130	7.582346e+04	1.068557e+05	4.594087e+04	4.593971e+04	-1.063086e+04	1.431819e+05	2.507816e+04	2.508527e+04	
131	9.249355e+04	3.566351e+04	4.846879e+04	4.845550e+04	-4.475611e+03	9.138130e+04	2.653399e+04	2.655785e+04	
132	1.502803e+05	-3.479994e+04	5.058979e+04	5.062199e+04	1.044968e+04	4.053119e+04	2.774479e+04	2.766844e+04	
133	9.754991e+04	-8.682379e+03	5.223132e+04	5.225953e+04	-4.301184e+02	-2.395313e+04	2.856516e+04	2.852944e+04	
134	-1.835024e+04	-1.378349e+05	5.312146e+04	5.307921e+04	-3.641659e+04	-8.701307e+04	2.884850e+04	2.891361e+04	
135	-7.211267e+04	-2.510645e+05	5.355313e+04	5.367477e+04	-8.504990e+04	-1.551391e+05	2.909880e+04	2.889645e+04	
136	-1.304196e+05	-3.433226e+05	5.397120e+04	5.408541e+04	-1.151860e+05	-2.241494e+05	2.923936e+04	2.905056e+04	
137	-2.146566e+05	-4.088095e+05	5.325147e+04	5.333515e+04	-1.735076e+05	-2.647610e+05	2.876621e+04	2.865751e+04	
138	-3.128755e+05	-4.952426e+05	5.149423e+04	5.153017e+04	-2.676121e+05	-3.037380e+05	2.784292e+04	2.779923e+04	
139	-4.413148e+05	-5.653040e+05	4.945299e+04	4.945302e+04	-3.580555e+05	-3.763530e+05	2.671534e+04	2.670271e+04	
140	-1.051221e+05	5.309917e+05	1.117573e+05	1.117538e+05	-2.063466e+06	1.017878e+06	6.756424e+04	6.757205e+04	
141	-1.610935e+05	3.878187e+05	3.542030e+04	3.542340e+04	-1.438214e+05	3.603567e+05	1.962599e+04	1.962019e+04	
142	-1.235900e+05	2.739565e+05	3.996403e+04	3.996682e+04	-1.133817e+05	2.714067e+05	2.187990e+04	2.187553e+04	
143	7.276549e+03	1.709440e+05	4.301918e+04	4.302546e+04	-4.324968e+04	2.040856e+05	2.348089e+04	2.347814e+04	
144	7.522180e+04	1.010342e+05	4.641744e+04	4.641054e+04	-1.238900e+04	1.398500e+05	2.534052e+04	2.534757e+04	
145	1.097970e+05	3.441743e+04	4.896286e+04	4.895688e+04	2.106936e+03	8.834824e+04	2.681430e+04	2.682211e+04	
146	1.612768e+05	-2.974334e+04	5.098271e+04	5.096653e+04	1.321100e+04	3.515642e+04	2.800037e+04	2.805759e+04	
147	9.023344e+04	-5.270988e+03	5.268905e+04	5.270027e+04	2.874894e+03	-3.263817e+04	2.880508e+04	2.878971e+04	
148	-1.846027e+03	-1.370604e+05	5.367407e+04	5.360976e+04	-2.707299e+04	-9.522686e+04	2.920444e+04	2.930780e+04	
149	-4.914190e+04	-2.414952e+05	5.432853e+04	5.423608e+04	-6.610081e+04	-1.594966e+05	2.940951e+04	2.950413e+04	
150	-1.081723e+05	-3.256203e+05	5.439806e+04	5.446871e+04	-1.042015e+05	-2.215677e+05	2.952287e+04	2.940019e+04	
151	-2.029549e+05	-3.905203e+05	5.351255e+04	5.359434e+04	-1.753722e+05	-2.652729e+05	2.900998e+04	2.890784e+04	
152	-2.984275e+05	-4.842752e+05	5.190331e+04	5.193101e+04	-2.640642e+05	-3.034634e+05	2.815120e+04	2.811409e+04	
153	-4.314710e+05	-5.571368e+05	4.980446e+04	4.983246e+04	-3.554590e+05	-3.719381e+05	2.703738e+04	2.698501e+04	
154	-7.938539e+04	5.412492e+05	1.139437e+05	1.139401e+05	-2.064559e+06	1.033768e+06	6.898024e+04	6.898664e+04	
155	-1.568558e+05	3.836846e+05	3.578558e+04	3.578530e+04	-1.369366e+05	3.504908e+05	1.979941e+04	1.979907e+04	
156	-1.198008e+05	2.734442e+05	4.025907e+04	4.025942e+04	-1.155323e+05	2.689640e+05	2.208726e+04	2.208784e+04	
157	1.299356e+04	1.734448e+05	4.326355e+04	4.326903e+04	-4.285653e+04	2.065922e+05	2.367127e+04	2.366619e+04	
158	7.679148e+04	1.019553e+05	4.658172e+04	4.658697e+04	-1.670640e+04	1.379396e+05	2.544369e+04	2.544994e+04	
159	1.057710e+05	3.051547e+04	4.911309e+04	4.910200e+04	-1.772989e+03	8.522830e+04	2.689951e+04	2.692599e+04	
160	1.515499e+05	-2.483925e+04	5.113911e+04	5.101636e+04	5.451422e+03	2.883184e+04	2.791840e+04	2.810377e+04	
161	9.930538e+04	-5.412288e+02	5.270265e+04	5.270719e+04	-1.932107e+02	-3.356832e+04	2.880057e+04	2.879750e+04	
162	-1.325206e+03	-1.376350e+05	5.374733e+04	5.367897e+04	-2.613326e+04	-9.630799e+04	2.920450e+04	2.930724e+04	
163	-6.002502e+04	-2.489621e+05	5.433519e+04	5.421385e+04	-7.894614e+04	-1.580141e+05	2.929621e+04	2.949309e+04	
164	-1.076392e+05	-3.321053e+05	5.447681e+04	5.458360e+04	-1.066717e+05	-2.254188e+05	2.958788e+04	2.941870e+04	
165	-1.974646e+05	-3.921842e+05	5.376810e+04	5.384002e+04	-1.685331e+05	-2.735420e+05	2.910745e+04	2.903265e+04	
166	-2.977995e+05	-4.822159e+05	5.194828e+04	5.203774e+04	-2.629911e+05	-3.069378e+05	2.823553e+04	2.809873e+04	
167	-4.260467e+05	-5.529732e+05	4.988548e+04	4.991223e+04	-3.553679e+05	-3.742709e+05	2.707804e+04	2.702624e+04	
168	-8.775389e+04	5.408492e+05	1.120832e+05	1.120807e+05	-2.053623e+06	1.038143e+06	6.778427e+04	6.778785e+04	
169	-7.077945e+05	5.148380e+05	2.753705e+04	2.753604e+04	-6.203180e+05	3.813619e+05	1.545524e+04	1.545703e+04	
170	-6.285927e+05	4.400692e+05	3.088988e+04	3.088615e+04	-4.975652e+05	3.124943e+05	1.715491e+04	1.716138e+04	
171	-4.242098e+05	2.988969e+05	3.049297e+04	3.049630e+04	-2.107121e+05	1.853521e+05	1.741906e+04	1.741316e+04	
172	-2.580608e+05	2.807427e+05	3.877639e+04	3.877477e+04	-2.656939e+05	2.161186e+05	2.088588e+04	2.089049e+04	
173	-1.520018e+05	2.133875e+05	4.329712e+04	4.330603e+04	-1.749652e+05	1.859839e+05	2.303899e+04	2.302613e+04	
174	-4.564463e+04	1.642052e+05	4.667258e+04	4.666252e+04	-1.022245e+05	1.475521e+05	2.468250e+04	2.469195e+04	
175	-1.643659e+04	1.131966e+05	4.971367e+04	4.971417e+04	-5.293146e+04	1.078873e+05	2.619829e+04	2.620189e+04	
176	5.687079e+04	7.780487e+04	5.193617e+04	5.197490e+04	-1.364916e+04	6.145986e+04	2.749062e+04	2.748715e+04	
177	4.490201e+03	1.995678e+04	5.433690e+04	5.429913e+04	2.845194e+03	1.577404e+04	2.870134e+04	2.878143e+04	
178	1.994092e+04	-5.576127e+04	5.690875e+04	5.689151e+04	2.214241e+04	-7.074641e+03	2.986442e+04	2.990209e+04	
179	1.118304e+04	-1.012612e+05	5.687329e+04	5.697944e+04	8.226101e+03	-3.340389e+04	3.022844e+04	2.994189e+04	
180	-7.003168e+04	-1.508734e+05	5.660520e+04	5.666860e+04	-4.982688e+04	-5.457217e+04	2.995090e+04	2.975992e+04	
181	-1.103025e+05	-2.328546e+05	5.613181e+04	5.624714e+04	-8.571357e+04	-1.273236e+05	2.961765e+04	2.939103e+04	
182	6.604595e+05	-3.060607e+05	1.433107e+05	1.433159e+05	-9.487595e+05	5.701359e+05	9.802336e+04	9.801301e+04	
183	-7.107006e+05	5.111164e+05	2.718463e+04	2.718523e+04	-6.156572e+05	3.838909e+05	1.523645e+04	1.523582e+04	
184	-6.211705e+05	4.436895e+05	3.090910e+04	3.091091e+04	-5.205938e+05	3.148498e+05	1.708389e+04	1.708014e+04	
185	-4.227760e+05	2.989541e+05	3.061001e+04	3.060844e+04	-2.113511e+05	1.919350e+05	1.740245e+04	1.740630e+04	
186	-2.511609e+05	2.830752e+05	3.905226e+04	3.905180e+04	-2.756646e+05	2.174406e+05	2.095904e+04	2.096011e+04	
187	-1.502481e+05	2.128941e+05	4.290714e+04	4.290468e+04	-1.758155e+05	1.939327e+05	2.281283e+04	2.281881e+04	
188	-3.871884e+04	1.650247e+05	4.667173e+04	4.665093e+04	-1.006832e+05	1.488056e+05	2.457994e+04	2.460972e+04	
189	-1.259869e+04	1.171624e+05	4.938539e+04	4.939624e+04	-4.741871e+04	1.123421e+05	2.598833e+04	2.597497e+04	
190	4.516707e+04	6.930686e+04	5.158792e+04	5.160558e+04	-1.029769e+04	6.170394e+04	2.722430e+04	2.724200e+04	
191	-2.238741e+04	1.176961e+04	5.440329e+04	5.433307e+04	1.198729e+04	1.953570e+04	2.855505e+04	2.868563e+04	
192	2.879170e+04	-5.249159e+04	5.709436e+04	5.704745e+04	2.371697e+04	-4.553004e+03	2.988207e+04	2.994007e+04	
193	7.522375e+03	-1.043489e+05	5.693093e+04	5.699389e+04	4.589740e+03	-2.494768e+04	3.014456e+04	2.991581e+04	
194	-6.354247e+04	-1.495547e+05	5.685559e+04	5.687511e+04	-4.479337e+04	-3.733918e+04	2.999774e+04	2.984989e+04	
195	-1.082689e+05	-2.318028e+05	5.619337e+04	5.629620e+04	-9.085265e+04	-1.206939e+05	2.961397e+04	2.939904e+04	
196	6.616653e+05	-3.122575e+05	1.420084e+05	1.420076e+05	-9.508465e+05	5.758324e+05	9.736807e+04	9.736801e+04	
197	-7.100673e+05	5.127391e+05	2.703540e+04	2.703461e+04	-6.135865e+05	3.845211e+05	1.517173e+04	1.517256e+04	
198	-6.186743e+05	4.540921e+05	3.087698e+04	3.087521e+04	-5.158803e+05	3.127230e+05	1.707408e+04	1.707715e+04	
199	-4.061614e+05	3.015614e+05	3.255231e+04	3.254986e+04	-2.518487e+05	1.489102e+05	1.801172e+04	1.801663e+04	
200	-2.556470e+05	2.828359e+05	3.841653e+04	3.841954e+04	-2.624383e+05	2.211316e+05	2.071619e+04	2.070903e+04	
201	-1.432768e+05	2.127235e+05	4.283742e+04	4.283873e+04	-1.728343e+05	1.905223e+05	2.276682e+04	2.276783e+04	
202	-3.462542e+04	1.657052e+05	4.649818e+04	4.648086e+04	-9.943994e+04	1.511862e+05	2.447725e+04	2.450118e+04	
203	-1.467363e+04	1.149608e+05	4.923685e+04	4.924002e+04	-4.822260e+04	1.148813e+05	2.588632e+04	2.588479e+04	
204	4.693378e+04	6.194619e+04	5.162899e+04	5.165931e+04	-9.683192e+03	6.032708e+04	2.722870e+04	2.721301e+04	
205	-2.730074e+04	1.485722e+04	5.430728e+04	5.422924e+04	1.289095e+04	2.545825e+04	2.840015e+04	2.852872e+04	
206	2.791743e+04	-5.398824e+04	5.713650e+04	5.708724e+04	2.731571e+04	-8.028981e+03	2.991067e+04	2.998777e+04	
207	2.824553e+03	-1.094887e+05	5.703322e+04	5.715242e+04	7.796750e+03	-2.319166e+04	3.024175e+04	2.996001e+04	
208	-6.611882e+04	-1.522690e+05	5.663089e+04	5.667826e+04	-5.221953e+04	-5.416625e+04	2.991828e+04	2.974055e+04	
209	-1.093172e+05	-2.368868e+05	5.619011e+04	5.631041e+04	-8.983925e+04	-1.297910e+05	2.962215e+04	2.938465e+04	
210	6.326528e+05	-2.560517e+05	1.379617e+05	1.379567e+05	-9.485671e+05	5.599309e+05	9.561778e+04	9.562615e+04	
211	-9.694625e+05	5.715425e+05	2.332003e+04	2.331895e+04	-8.689648e+05	4.373888e+05	1.331692e+04	1.331893e+04	
212	-9.359988e+05	4.662675e+05	2.718591e+04	2.718460e+04	-7.291686e+05	3.553970e+05	1.525485e+04	1.525684e+04	
213	-5.944995e+05	3.450077e+05	3.105347e+04	3.104865e+04	-5.842901e+05	2.989289e+05	1.732345e+04	1.733224e+04	
214	-4.662030e+05	3.188589e+05	3.470968e+04	3.471481e+04	-4.489478e+05	2.396196e+05	1.906189e+04	1.905345e+04	
215	-3.569893e+05	2.765533e+05	3.858743e+04	3.858135e+04	-3.274407e+05	1.968529e+05	2.092358e+04	2.093015e+04	
216	-1.354308e+05	2.718191e+05	4.582116e+04	4.585369e+04	-3.604664e+05	2.694506e+05	2.381268e+04	2.377974e+04	
217	-1.357798e+05	1.475876e+05	4.681777e+04	4.679732e+04	-1.492072e+05	1.360278e+05	2.479449e+04	2.482517e+04	
218	-5.564613e+04	1.018409e+05	4.994514e+04	4.995398e+04	-7.946214e+04	9.770300e+04	2.647501e+04	2.649803e+04	
219	3.020003e+04	7.720807e+04	5.238503e+04	5.229467e+04	-4.110439e+04	8.837620e+04	2.767611e+04	2.779908e+04	
220	-4.646817e+04	6.959297e+04	5.442419e+04	5.446040e+04	-1.219684e+04	5.127512e+04	2.890977e+04	2.884160e+04	
221	7.639334e+03	-3.605540e+04	5.608495e+04	5.630527e+04	6.435302e+03	9.640585e+03	3.003984e+04	2.962787e+04	
222	3.566534e+03	-7.005304e+04	5.670938e+04	5.671076e+04	-2.067289e+04	1.781687e+04	3.023600e+04	3.016061e+04	
223	-1.247102e+04	-1.275700e+05	5.683265e+04	5.684454e+04	-3.884730e+04	-4.430995e+04	3.044139e+04	3.036816e+04	
224	8.994565e+05	-6.819925e+05	1.936729e+05	1.928934e+05	-3.663929e+05	5.079029e+05	1.480895e+05	1.507862e+05	
225	-9.590795e+05	5.219290e+05	2.335149e+04	2.335280e+04	-8.771088e+05	4.212215e+05	1.332844e+04	1.332604e+04	
226	-9.317217e+05	4.584070e+05	2.737350e+04	2.737282e+04	-7.465385e+05	3.534313e+05	1.532234e+04	1.532360e+04	
227	-5.954170e+05	3.441857e+05	3.110584e+04	3.110673e+04	-5.828382e+05	2.932630e+05	1.733682e+04	1.733601e+04	
228	-4.688158e+05	3.184853e+05	3.459806e+04	3.459940e+04	-4.431779e+05	2.380663e+05	1.901451e+04	1.901028e+04	
229	-3.508106e+05	2.773940e+05	3.873950e+04	3.874527e+04	-3.286175e+05	1.909773e+05	2.098176e+04	2.097188e+04	
230	-1.718763e+05	1.192496e+05	3.576029e+04	3.573573e+04	-1.370438e+05	3.267057e+05	2.093794e+04	2.097161e+04	
231	-1.361010e+05	1.384617e+05	4.625537e+04	4.625561e+04	-1.408227e+05	1.394767e+05	2.466129e+04	2.465969e+04	
232	-5.244145e+04	9.971841e+04	4.989622e+04	4.990512e+04	-7.804950e+04	9.875380e+04	2.649298e+04	2.651093e+04	
233	2.751235e+04	1.219303e+05	5.233219e+04	5.224159e+04	-4.388152e+04	8.780569e+04	2.766492e+04	2.781984e+04	
234	-4.559352e+04	6.637540e+04	5.442077e+04	5.448917e+04	-1.169984e+04	5.152145e+04	2.896957e+04	2.885545e+04	
235	2.279714e+03	-3.938417e+04	5.610817e+04	5.621824e+04	1.363192e+04	1.371499e+04	2.996885e+04	2.982112e+04	
236	6.201192e+03	-7.483503e+04	5.668557e+04	5.671686e+04	-1.870676e+04	3.098235e+04	3.026885e+04	3.013874e+04	
237	-2.138169e+04	-1.255035e+05	5.676925e+04	5.681742e+04	-3.132236e+04	-5.076907e+04	3.047001e+04	3.033474e+04	
238	8.826372e+05	-7.253060e+05	1.881584e+05	1.872454e+05	-4.290202e+05	4.179611e+05	1.375108e+05	1.406398e+05	
239	-1.091727e+06	5.330535e+05	2.364169e+04	2.364066e+04	-8.768395e+05	4.281959e+05	1.340745e+04	1.340940e+04	
240	-9.340100e+05	4.648051e+05	2.725776e+04	2.725500e+04	-7.287471e+05	3.513130e+05	1.523975e+04	1.524493e+04	
241	-5.944246e+05	3.485317e+05	3.106103e+04	3.106525e+04	-5.840384e+05	2.964696e+05	1.729015e+04	1.728218e+04	
242	-4.677006e+05	3.196664e+05	3.457597e+04	3.457812e+04	-4.425352e+05	2.422967e+05	1.898729e+04	1.898282e+04	
243	-3.545657e+05	2.829648e+05	3.818506e+04	3.818989e+04	-3.166797e+05	1.969391e+05	2.078920e+04	2.077815e+04	
244	-1.825475e+05	1.214142e+05	3.538687e+04	3.536289e+04	-1.265114e+05	3.106162e+05	2.071981e+04	2.075121e+04	
245	-1.443808e+05	1.452337e+05	4.676291e+04	4.676402e+04	-1.474096e+05	1.375261e+05	2.481446e+04	2.481623e+04	
246	-6.732435e+04	1.057642e+05	4.979780e+04	4.982989e+04	-7.804710e+04	1.001371e+05	2.646315e+04	2.644810e+04	
247	2.972476e+04	6.378111e+04	5.238253e+04	5.229159e+04	-4.582983e+04	8.790256e+04	2.767205e+04	2.782312e+04	
248	-4.016019e+04	7.504892e+04	5.446392e+04	5.449665e+04	-8.260506e+03	4.909792e+04	2.894568e+04	2.888734e+04	
249	1.802401e+03	-4.263859e+04	5.620814e+04	5.612930e+04	8.063502e+03	1.412077e+04	2.983691e+04	2.982427e+04	
250	6.195558e+03	-7.541328e+04	5.658836e+04	5.658856e+04	-1.948415e+04	2.648756e+04	3.019685e+04	3.013312e+04	
251	-1.509412e+04	-1.320637e+05	5.660201e+04	5.674389e+04	-3.145954e+04	-4.567644e+04	3.044726e+04	3.020001e+04	
252	9.946640e+05	-7.034835e+05	1.969646e+05	1.957771e+05	-3.518757e+05	4.985980e+05	1.467407e+05	1.513130e+05	
2036.049012s consumed in total.